{
"update_id":10000,
"message":{
  "date":1441645532,
  "chat":{
     "last_name":"Test Lastname",
     "type": "private",
     "id":1111111,
     "first_name":"Test Firstname",
     "username":"Testusername"
  },
  "message_id":1365,
  "from":{
     "last_name":"Test Lastname",
     "id":1111111,
     "first_name":"Test Firstname",
     "username":"Testusername"
  },
  "document": {
      "file_id": "AwADBAADbXXXXXXXXXXXGBdhD2l6_XX",
      "file_name": "Testfile.pdf",
      "mime_type": "application/pdf",
      "file_size": 536392
  }
}
}